Data Wrangling & Summarizing in R – Slides for Data Wrangling & Summarizing in R
…
Sorting datasets using arrange()

arrange() is a function that lets us sort a dataset by a specified variable.

By default, it sorts in ascending order:

yrbss_data |> 
  arrange(record)

# A tibble: 20,000 × 8
   record age                     sex   grade race4         race7   bmi stweight
    <dbl> <chr>                   <chr> <chr> <chr>         <chr> <dbl>    <dbl>
 1  30592 <NA>                    <NA>  <NA>  <NA>          <NA>     NA       NA
 2  30593 <NA>                    <NA>  9th   Hispanic/Lat… Hisp…    NA       NA
 3  30595 16 years old            <NA>  10th  White         White    NA       NA
 4  30599 12 years old or younger Male  <NA>  Hispanic/Lat… Hisp…    NA       NA
 5  30601 12 years old or younger Male  11th  White         White    NA       NA
 6  30604 12 years old or younger Male  9th   Hispanic/Lat… Hisp…    NA       NA
 7  30605 12 years old or younger Male  9th   All other ra… Asian    NA       NA
 8  30607 12 years old or younger Male  10th  All other ra… Am I…    NA       NA
 9  30608 12 years old or younger Male  9th   All other ra… <NA>     NA       NA
10  30612 14 years old            Male  9th   All other ra… <NA>     NA       NA
# ℹ 19,990 more rows

To sort by descending order, you need to wrap the variable in the desc() function:

yrbss_data |> 
  arrange(desc(record))

# A tibble: 20,000 × 8
    record age                   sex    grade race4         race7   bmi stweight
     <dbl> <chr>                 <chr>  <chr> <chr>         <chr> <dbl>    <dbl>
 1 1317069 18 years old or older Female 12th  Black or Afr… Blac…  24.4     69.0
 2 1317067 18 years old or older Female 12th  White         White  18.8     49.9
 3 1317066 18 years old or older Female 12th  White         White  32.1     90.7
 4 1317065 18 years old or older Female 12th  White         White  21.2     56.2
 5 1317064 18 years old or older Female 12th  White         White  23.5     68.0
 6 1317063 18 years old or older Female 12th  White         White  21.7     52.2
 7 1317062 18 years old or older Female 12th  White         White  24.8     61.2
 8 1317058 18 years old or older Female 11th  Black or Afr… Blac…  17.7     49.9
 9 1317057 18 years old or older Female 12th  All other ra… Asian  19.8     44.4
10 1317056 18 years old or older Female 12th  White         White  21.7     61.2
# ℹ 19,990 more rows

Sorting datasets by multiple variables

You can also arrange by multiple variables.

The code below sorts by age first, and then within age, we sort by record.

yrbss_data |> 
  arrange(age, record)

# A tibble: 20,000 × 8
   record age                     sex    grade race4        race7   bmi stweight
    <dbl> <chr>                   <chr>  <chr> <chr>        <chr> <dbl>    <dbl>
 1  30599 12 years old or younger Male   <NA>  Hispanic/La… Hisp…    NA       NA
 2  30601 12 years old or younger Male   11th  White        White    NA       NA
 3  30604 12 years old or younger Male   9th   Hispanic/La… Hisp…    NA       NA
 4  30605 12 years old or younger Male   9th   All other r… Asian    NA       NA
 5  30607 12 years old or younger Male   10th  All other r… Am I…    NA       NA
 6  30608 12 years old or younger Male   9th   All other r… <NA>     NA       NA
 7  36582 12 years old or younger Female 12th  All other r… <NA>     NA       NA
 8  36584 12 years old or younger Female <NA>  Black or Af… Blac…    NA       NA
 9  36585 12 years old or younger Female 12th  All other r… Am I…    NA       NA
10  36586 12 years old or younger Female 9th   Black or Af… Blac…    NA       NA
# ℹ 19,990 more rows

Note that order of variables in arrange() matters!

yrbss_data |> 
  arrange(record, age)

# A tibble: 20,000 × 8
   record age                     sex   grade race4         race7   bmi stweight
    <dbl> <chr>                   <chr> <chr> <chr>         <chr> <dbl>    <dbl>
 1  30592 <NA>                    <NA>  <NA>  <NA>          <NA>     NA       NA
 2  30593 <NA>                    <NA>  9th   Hispanic/Lat… Hisp…    NA       NA
 3  30595 16 years old            <NA>  10th  White         White    NA       NA
 4  30599 12 years old or younger Male  <NA>  Hispanic/Lat… Hisp…    NA       NA
 5  30601 12 years old or younger Male  11th  White         White    NA       NA
 6  30604 12 years old or younger Male  9th   Hispanic/Lat… Hisp…    NA       NA
 7  30605 12 years old or younger Male  9th   All other ra… Asian    NA       NA
 8  30607 12 years old or younger Male  10th  All other ra… Am I…    NA       NA
 9  30608 12 years old or younger Male  9th   All other ra… <NA>     NA       NA
10  30612 14 years old            Male  9th   All other ra… <NA>     NA       NA
# ℹ 19,990 more rows
…
We need to save our work by re-assigning the sorted/arranged dataset as yrbss_data with the <- operator:

yrbss_data <- yrbss_data |> arrange(desc(record))

yrbss_data

# A tibble: 20,000 × 8
    record age                   sex    grade race4         race7   bmi stweight
     <dbl> <chr>                 <chr>  <chr> <chr>         <chr> <dbl>    <dbl>
 1 1317069 18 years old or older Female 12th  Black or Afr… Blac…  24.4     69.0
 2 1317067 18 years old or older Female 12th  White         White  18.8     49.9
 3 1317066 18 years old or older Female 12th  White         White  32.1     90.7
 4 1317065 18 years old or older Female 12th  White         White  21.2     56.2
 5 1317064 18 years old or older Female 12th  White         White  23.5     68.0
 6 1317063 18 years old or older Female 12th  White         White  21.7     52.2
 7 1317062 18 years old or older Female 12th  White         White  24.8     61.2
 8 1317058 18 years old or older Female 11th  Black or Afr… Blac…  17.7     49.9
 9 1317057 18 years old or older Female 12th  All other ra… Asian  19.8     44.4
10 1317056 18 years old or older Female 12th  White         White  21.7     61.2
# ℹ 19,990 more rows
…
filter()ing quantitative data

filter() is an extremely powerful function. It lets us subset our data according to specific criteria.

Let’s filter on a numeric variable, bmi: all rows with bmi values greater than 40

yrbss_data |>
  filter(bmi > 40)

# A tibble: 160 × 8
    record age                   sex    grade race4         race7   bmi stweight
     <dbl> <chr>                 <chr>  <chr> <chr>         <chr> <dbl>    <dbl>
 1 1316985 18 years old or older Female 12th  White         White  42.4    127. 
 2 1316823 18 years old or older Female 12th  Black or Afr… Blac…  43.3    118. 
 3 1316755 18 years old or older Female 12th  White         White  41.0    109. 
 4 1316476 18 years old or older Female 12th  Hispanic/Lat… Hisp…  49.6    104. 
 5 1316448 18 years old or older Female 12th  All other ra… Mult…  41.9    128. 
 6 1316336 18 years old or older Female 12th  Black or Afr… Blac…  40.2    113. 
 7 1316330 18 years old or older Female 12th  Hispanic/Lat… Hisp…  40.2    113. 
 8 1316235 18 years old or older Female 12th  <NA>          <NA>   45.1    120. 
 9 1316186 18 years old or older Female <NA>  Hispanic/Lat… Hisp…  47.6     89.4
10 1315913 17 years old          Female 12th  Black or Afr… Blac…  53.3    142. 
# ℹ 150 more rows
…
Note the double equal signs!

== is a test of whether two things are equal,

it is not an “assignment” (i.e. x = 5 assigns the value 5 to the object x).

yrbss_data |>
  filter(grade == "10th") # We must include " " around the value for categorical variables

# A tibble: 4,907 × 8
    record age                   sex    grade race4         race7   bmi stweight
     <dbl> <chr>                 <chr>  <chr> <chr>         <chr> <dbl>    <dbl>
 1 1317010 18 years old or older Female 10th  Black or Afr… Blac…  28.3     61.2
 2 1315996 17 years old          Female 10th  White         White  16.3     44.4
 3 1315971 17 years old          Female 10th  Hispanic/Lat… Hisp…  19.6     56.7
 4 1315934 17 years old          Female 10th  Black or Afr… Blac…  23.5     70.3
 5 1315928 17 years old          Female 10th  Black or Afr… Blac…  21.0     45.4
 6 1315926 17 years old          Female 10th  Hispanic/Lat… Hisp…  25.9     66.2
 7 1315884 17 years old          Female 10th  White         White  51.4    132. 
 8 1315816 17 years old          Female 10th  All other ra… Mult…  22.2     59.0
 9 1315792 17 years old          Female 10th  Hispanic/Lat… Hisp…  21.7     61.2
10 1315776 17 years old          Female 10th  Black or Afr… Blac…  20.6     50.8
# ℹ 4,897 more rows

If we want everything except 10th grade, we use the “not equal” sign !=

yrbss_data |>
  filter(grade != "10th")

# A tibble: 14,687 × 8
    record age                   sex    grade race4         race7   bmi stweight
     <dbl> <chr>                 <chr>  <chr> <chr>         <chr> <dbl>    <dbl>
 1 1317069 18 years old or older Female 12th  Black or Afr… Blac…  24.4     69.0
 2 1317067 18 years old or older Female 12th  White         White  18.8     49.9
 3 1317066 18 years old or older Female 12th  White         White  32.1     90.7
 4 1317065 18 years old or older Female 12th  White         White  21.2     56.2
 5 1317064 18 years old or older Female 12th  White         White  23.5     68.0
 6 1317063 18 years old or older Female 12th  White         White  21.7     52.2
 7 1317062 18 years old or older Female 12th  White         White  24.8     61.2
 8 1317058 18 years old or older Female 11th  Black or Afr… Blac…  17.7     49.9
 9 1317057 18 years old or older Female 12th  All other ra… Asian  19.8     44.4
10 1317056 18 years old or older Female 12th  White         White  21.7     61.2
# ℹ 14,677 more rows
…
sex == "Female" & grade == "10th"

Note that SPELLING AND CASE MATTER!

You must write the name of the column exactly and

also the value (i.e. “Female” not “female”) exactly.

Filtering with & (AND) criteria

yrbss_data |>
  filter(sex == "Female" & 
           grade == "10th")

# A tibble: 2,332 × 8
    record age                   sex    grade race4         race7   bmi stweight
     <dbl> <chr>                 <chr>  <chr> <chr>         <chr> <dbl>    <dbl>
 1 1317010 18 years old or older Female 10th  Black or Afr… Blac…  28.3     61.2
 2 1315996 17 years old          Female 10th  White         White  16.3     44.4
 3 1315971 17 years old          Female 10th  Hispanic/Lat… Hisp…  19.6     56.7
 4 1315934 17 years old          Female 10th  Black or Afr… Blac…  23.5     70.3
 5 1315928 17 years old          Female 10th  Black or Afr… Blac…  21.0     45.4
 6 1315926 17 years old          Female 10th  Hispanic/Lat… Hisp…  25.9     66.2
 7 1315884 17 years old          Female 10th  White         White  51.4    132. 
 8 1315816 17 years old          Female 10th  All other ra… Mult…  22.2     59.0
 9 1315792 17 years old          Female 10th  Hispanic/Lat… Hisp…  21.7     61.2
10 1315776 17 years old          Female 10th  Black or Afr… Blac…  20.6     50.8
# ℹ 2,322 more rows

Note that we could also use the comma in this case:

yrbss_data |>
  filter(sex == "Female",    # comma is equivalent to & within filter()
         grade == "10th")

# A tibble: 2,332 × 8
    record age                   sex    grade race4         race7   bmi stweight
     <dbl> <chr>                 <chr>  <chr> <chr>         <chr> <dbl>    <dbl>
 1 1317010 18 years old or older Female 10th  Black or Afr… Blac…  28.3     61.2
 2 1315996 17 years old          Female 10th  White         White  16.3     44.4
 3 1315971 17 years old          Female 10th  Hispanic/Lat… Hisp…  19.6     56.7
 4 1315934 17 years old          Female 10th  Black or Afr… Blac…  23.5     70.3
 5 1315928 17 years old          Female 10th  Black or Afr… Blac…  21.0     45.4
 6 1315926 17 years old          Female 10th  Hispanic/Lat… Hisp…  25.9     66.2
 7 1315884 17 years old          Female 10th  White         White  51.4    132. 
 8 1315816 17 years old          Female 10th  All other ra… Mult…  22.2     59.0
 9 1315792 17 years old          Female 10th  Hispanic/Lat… Hisp…  21.7     61.2
10 1315776 17 years old          Female 10th  Black or Afr… Blac…  20.6     50.8
# ℹ 2,322 more rows

Filtering with | (OR) criteria

If we wanted patients who were

Female or in 10th grade

we would use a | to chain these criteria together.

yrbss_data |>
  filter(sex == "Female" |
           grade == "10th")

# A tibble: 12,167 × 8
    record age                   sex    grade race4         race7   bmi stweight
     <dbl> <chr>                 <chr>  <chr> <chr>         <chr> <dbl>    <dbl>
 1 1317069 18 years old or older Female 12th  Black or Afr… Blac…  24.4     69.0
 2 1317067 18 years old or older Female 12th  White         White  18.8     49.9
 3 1317066 18 years old or older Female 12th  White         White  32.1     90.7
 4 1317065 18 years old or older Female 12th  White         White  21.2     56.2
 5 1317064 18 years old or older Female 12th  White         White  23.5     68.0
 6 1317063 18 years old or older Female 12th  White         White  21.7     52.2
 7 1317062 18 years old or older Female 12th  White         White  24.8     61.2
 8 1317058 18 years old or older Female 11th  Black or Afr… Blac…  17.7     49.9
 9 1317057 18 years old or older Female 12th  All other ra… Asian  19.8     44.4
10 1317056 18 years old or older Female 12th  White         White  21.7     61.2
# ℹ 12,157 more rows
…
Filtering out missing values using drop_na() (2/2)

Pay attention to the number of rows for each of these results

Remove missingness in one column:

yrbss_data |> drop_na(race7)

# A tibble: 18,813 × 8
    record age                   sex    grade race4         race7   bmi stweight
     <dbl> <chr>                 <chr>  <chr> <chr>         <chr> <dbl>    <dbl>
 1 1317069 18 years old or older Female 12th  Black or Afr… Blac…  24.4     69.0
 2 1317067 18 years old or older Female 12th  White         White  18.8     49.9
 3 1317066 18 years old or older Female 12th  White         White  32.1     90.7
 4 1317065 18 years old or older Female 12th  White         White  21.2     56.2
 5 1317064 18 years old or older Female 12th  White         White  23.5     68.0
 6 1317063 18 years old or older Female 12th  White         White  21.7     52.2
 7 1317062 18 years old or older Female 12th  White         White  24.8     61.2
 8 1317058 18 years old or older Female 11th  Black or Afr… Blac…  17.7     49.9
 9 1317057 18 years old or older Female 12th  All other ra… Asian  19.8     44.4
10 1317056 18 years old or older Female 12th  White         White  21.7     61.2
# ℹ 18,803 more rows

Remove missingness in two columns:

yrbss_data |> drop_na(race7, bmi)

# A tibble: 13,126 × 8
    record age                   sex    grade race4         race7   bmi stweight
     <dbl> <chr>                 <chr>  <chr> <chr>         <chr> <dbl>    <dbl>
 1 1317069 18 years old or older Female 12th  Black or Afr… Blac…  24.4     69.0
 2 1317067 18 years old or older Female 12th  White         White  18.8     49.9
 3 1317066 18 years old or older Female 12th  White         White  32.1     90.7
 4 1317065 18 years old or older Female 12th  White         White  21.2     56.2
 5 1317064 18 years old or older Female 12th  White         White  23.5     68.0
 6 1317063 18 years old or older Female 12th  White         White  21.7     52.2
 7 1317062 18 years old or older Female 12th  White         White  24.8     61.2
 8 1317058 18 years old or older Female 11th  Black or Afr… Blac…  17.7     49.9
 9 1317057 18 years old or older Female 12th  All other ra… Asian  19.8     44.4
10 1317056 18 years old or older Female 12th  White         White  21.7     61.2
# ℹ 13,116 more rows

Remove all missingness:

yrbss_data |> drop_na()

# A tibble: 12,897 × 8
    record age                   sex    grade race4         race7   bmi stweight
     <dbl> <chr>                 <chr>  <chr> <chr>         <chr> <dbl>    <dbl>
 1 1317069 18 years old or older Female 12th  Black or Afr… Blac…  24.4     69.0
 2 1317067 18 years old or older Female 12th  White         White  18.8     49.9
 3 1317066 18 years old or older Female 12th  White         White  32.1     90.7
 4 1317065 18 years old or older Female 12th  White         White  21.2     56.2
 5 1317064 18 years old or older Female 12th  White         White  23.5     68.0
 6 1317063 18 years old or older Female 12th  White         White  21.7     52.2
 7 1317062 18 years old or older Female 12th  White         White  24.8     61.2
 8 1317058 18 years old or older Female 11th  Black or Afr… Blac…  17.7     49.9
 9 1317057 18 years old or older Female 12th  All other ra… Asian  19.8     44.4
10 1317056 18 years old or older Female 12th  White         White  21.7     61.2
# ℹ 12,887 more rows
…
Selecting columns using select()

The select() function allows us to select variables or columns from our dataset:

basic example
remove columns
consecutive columns
rearrange columns

yrbss_data |>
  select(record, age, race4)

# A tibble: 20,000 × 3
    record age                   race4                    
     <dbl> <chr>                 <chr>                    
 1 1317069 18 years old or older Black or African American
 2 1317067 18 years old or older White                    
 3 1317066 18 years old or older White                    
 4 1317065 18 years old or older White                    
 5 1317064 18 years old or older White                    
 6 1317063 18 years old or older White                    
 7 1317062 18 years old or older White                    
 8 1317058 18 years old or older Black or African American
 9 1317057 18 years old or older All other races          
10 1317056 18 years old or older White                    
# ℹ 19,990 more rows

If we want to select everything except specified variable(s),

we can use a - in front of the variable(s)

yrbss_data |>
  select(-race4, -race7)

# A tibble: 20,000 × 6
    record age                   sex    grade   bmi stweight
     <dbl> <chr>                 <chr>  <chr> <dbl>    <dbl>
 1 1317069 18 years old or older Female 12th   24.4     69.0
 2 1317067 18 years old or older Female 12th   18.8     49.9
 3 1317066 18 years old or older Female 12th   32.1     90.7
 4 1317065 18 years old or older Female 12th   21.2     56.2
 5 1317064 18 years old or older Female 12th   23.5     68.0
 6 1317063 18 years old or older Female 12th   21.7     52.2
 7 1317062 18 years old or older Female 12th   24.8     61.2
 8 1317058 18 years old or older Female 11th   17.7     49.9
 9 1317057 18 years old or older Female 12th   19.8     44.4
10 1317056 18 years old or older Female 12th   21.7     61.2
# ℹ 19,990 more rows

Select consecutive columns with var_first:var_last

Make sure you know the order of your columns so that this is correct

yrbss_data |> select(age:grade)

# A tibble: 20,000 × 3
   age                   sex    grade
   <chr>                 <chr>  <chr>
 1 18 years old or older Female 12th 
 2 18 years old or older Female 12th 
 3 18 years old or older Female 12th 
 4 18 years old or older Female 12th 
 5 18 years old or older Female 12th 
 6 18 years old or older Female 12th 
 7 18 years old or older Female 12th 
 8 18 years old or older Female 11th 
 9 18 years old or older Female 12th 
10 18 years old or older Female 12th 
# ℹ 19,990 more rows
…
